dt,x,y,position,velocity,acceleration,jerk,heading,lookahead
0.050000,1.800000,5.730000,0.000000,0.000000,2.000000,0.000000,1.570796,14.000000
0.050000,1.800009,5.735710,0.005000,0.100000,2.000000,0.000000,1.567573,14.000000
0.050000,1.800083,5.747086,0.015000,0.200000,2.000000,0.000000,1.561055,14.000000
0.050000,1.800332,5.764042,0.030000,0.300000,2.000000,0.000000,1.551098,15.000000
0.050000,1.800925,5.786447,0.050000,0.400000,2.000000,0.000000,1.537480,15.000000
0.050000,1.802089,5.814125,0.075000,0.500000,2.000000,0.000000,1.519890,16.000000
0.050000,1.804114,5.846851,0.105000,0.600000,2.000000,0.000000,1.497925,16.000000
0.050000,1.807352,5.884349,0.140000,0.700000,2.000000,0.000000,1.471073,17.000000
0.050000,1.812227,5.926291,0.180000,0.800000,2.000000,0.000000,1.438704,18.000000
0.050000,1.819233,5.972292,0.225000,0.900000,2.000000,0.000000,1.400060,19.000000
0.050000,1.828944,6.021905,0.275000,1.000000,2.000000,0.000000,1.354253,19.000000
0.050000,1.842018,6.074620,0.330000,1.100000,2.000000,0.000000,1.300282,20.000000
0.050000,1.859202,6.129855,0.390000,1.200000,2.000000,0.000000,1.237081,21.000000
0.050000,1.869808,6.158764,0.422500,1.300000,0.000000,0.000000,1.200985,22.000000
0.050000,1.893812,6.214411,0.487500,1.300000,0.000000,0.000000,1.125038,23.000000
0.050000,1.921618,6.267101,0.552500,1.300000,0.000000,0.000000,1.044513,24.000000
0.050000,1.953317,6.316763,0.617500,1.300000,0.000000,0.000000,0.960190,25.000000
0.050000,1.989004,6.363323,0.682500,1.300000,0.000000,0.000000,0.873136,25.000000
0.050000,2.028771,6.406710,0.747500,1.300000,0.000000,0.000000,0.784653,26.000000
0.050000,2.072711,6.446851,0.812500,1.300000,0.000000,0.000000,0.696170,27.000000
0.050000,2.120918,6.483673,0.877500,1.300000,0.000000,0.000000,0.609115,28.000000
0.050000,2.173485,6.517105,0.942500,1.300000,0.000000,0.000000,0.524780,29.000000
0.050000,2.230504,6.547073,1.007500,1.300000,0.000000,0.000000,0.444223,30.000000
0.050000,2.292069,6.573506,1.072500,1.300000,0.000000,0.000000,0.368208,31.000000
0.050000,2.358273,6.596331,1.137500,1.300000,0.000000,0.000000,0.297205,31.000000
0.050000,2.429209,6.615475,1.202500,1.300000,0.000000,0.000000,0.231416,32.000000
0.050000,2.500000,6.630000,1.263361,1.300000,0.000000,0.000000,0.174533,33.000000
0.050000,2.568847,6.641861,1.333361,1.400000,2.000000,0.000000,0.167031,34.000000
0.050000,2.642739,6.654090,1.408361,1.500000,2.000000,0.000000,0.161428,35.000000
0.050000,2.721650,6.666791,1.488361,1.600000,2.000000,0.000000,0.158218,36.000000
0.050000,2.805531,6.680139,1.573361,1.700000,2.000000,0.000000,0.157931,37.000000
0.050000,2.881987,6.692397,1.650861,1.800000,0.000000,0.000000,0.160474,38.000000
0.050000,2.970674,6.707013,1.740861,1.800000,0.000000,0.000000,0.166790,40.000000
0.050000,3.059172,6.722337,1.830861,1.800000,0.000000,0.000000,0.176731,41.000000
0.050000,3.147397,6.738685,1.920861,1.800000,0.000000,0.000000,0.190316,42.000000
0.050000,3.235265,6.756371,2.010861,1.800000,0.000000,0.000000,0.207561,43.000000
0.050000,3.239473,6.757259,2.015182,1.800000,0.000000,0.000000,0.208481,43.000000
0.050000,3.322034,6.775559,2.100182,1.700000,-2.000000,0.000000,0.228306,45.000000
0.050000,3.399312,6.794379,2.180182,1.600000,-2.000000,0.000000,0.249959,47.000000
0.050000,3.471332,6.813631,2.255182,1.500000,-2.000000,0.000000,0.272882,48.000000
0.050000,3.538132,6.833168,2.325182,1.400000,-2.000000,0.000000,0.296548,51.000000
0.050000,3.599763,6.852798,2.390182,1.300000,-2.000000,0.000000,0.320455,55.000000
0.050000,3.656287,6.872296,2.450182,1.200000,-2.000000,0.000000,0.344139,54.000000
0.050000,3.707768,6.891413,2.505182,1.100000,-2.000000,0.000000,0.367176,54.000000
0.050000,3.754277,6.909887,2.555182,1.000000,-2.000000,0.000000,0.389182,54.000000
0.050000,3.795886,6.927452,2.600182,0.900000,-2.000000,0.000000,0.409823,54.000000
0.050000,3.832663,6.943844,2.640182,0.800000,-2.000000,0.000000,0.428808,54.000000
0.050000,3.864677,6.958810,2.675182,0.700000,-2.000000,0.000000,0.445891,54.000000
0.050000,3.891990,6.972117,2.705182,0.600000,-2.000000,0.000000,0.460869,54.000000
0.050000,3.914658,6.983552,2.730182,0.500000,-2.000000,0.000000,0.473577,54.000000
0.050000,3.932731,6.992932,2.750182,0.400000,-2.000000,0.000000,0.483886,54.000000
0.050000,3.946249,7.000104,2.765182,0.300000,-2.000000,0.000000,0.491698,54.000000
0.050000,3.955244,7.004952,2.775182,0.200000,-2.000000,0.000000,0.496944,54.000000
0.050000,3.959736,7.007396,2.780182,0.100000,-2.000000,0.000000,0.499578,54.000000
0.050000,4.000000,7.030000,2.825182,0.000000,0.000000,0.000000,0.523599,54.000000
