dt,x,y,position,velocity,acceleration,jerk,heading,lookahead
0.025000,5.100000,7.530000,0.000000,0.000000,3.000000,0.000000,-2.617994,22.000000
0.025000,5.098330,7.529038,0.001875,0.075000,3.000000,0.000000,-2.619778,22.000000
0.025000,5.094989,7.527125,0.005625,0.150000,3.000000,0.000000,-2.623347,22.000000
0.025000,5.089970,7.524280,0.011250,0.225000,3.000000,0.000000,-2.628699,23.000000
0.025000,5.083266,7.520536,0.018750,0.300000,3.000000,0.000000,-2.635835,23.000000
0.025000,5.074866,7.515934,0.028125,0.375000,3.000000,0.000000,-2.644752,23.000000
0.025000,5.064759,7.510523,0.039375,0.450000,3.000000,0.000000,-2.655446,23.000000
0.025000,5.052928,7.504365,0.052500,0.525000,3.000000,0.000000,-2.667911,24.000000
0.025000,5.039357,7.497530,0.067500,0.600000,3.000000,0.000000,-2.682133,24.000000
0.025000,5.024025,7.490096,0.084375,0.675000,3.000000,0.000000,-2.698096,24.000000
0.025000,5.006911,7.482150,0.103125,0.750000,3.000000,0.000000,-2.715775,25.000000
0.025000,4.987992,7.473789,0.123750,0.825000,3.000000,0.000000,-2.735136,25.000000
0.025000,4.967240,7.465114,0.146250,0.900000,3.000000,0.000000,-2.756134,26.000000
0.025000,4.944629,7.456236,0.170625,0.975000,3.000000,0.000000,-2.778711,26.000000
0.025000,4.920131,7.447270,0.196875,1.050000,3.000000,0.000000,-2.802796,28.000000
0.025000,4.893713,7.438339,0.225000,1.125000,3.000000,0.000000,-2.828302,27.000000
0.025000,4.865345,7.429568,0.255000,1.200000,3.000000,0.000000,-2.855125,27.000000
0.025000,4.834995,7.421090,0.286875,1.275000,3.000000,0.000000,-2.883145,27.000000
0.025000,4.802628,7.413036,0.320625,1.350000,3.000000,0.000000,-2.912223,27.000000
0.025000,4.768210,7.405545,0.356250,1.425000,3.000000,0.000000,-2.942206,27.000000
0.025000,4.731708,7.398754,0.393750,1.500000,3.000000,0.000000,-2.972925,27.000000
0.025000,4.693086,7.392801,0.433125,1.575000,3.000000,0.000000,-3.004198,27.000000
0.025000,4.652310,7.387823,0.474375,1.650000,3.000000,0.000000,-3.035833,27.000000
0.025000,4.609346,7.383957,0.517500,1.725000,3.000000,0.000000,-3.067632,27.000000
0.025000,4.564161,7.381336,0.562500,1.800000,3.000000,0.000000,-3.099393,27.000000
0.025000,4.516722,7.380089,0.609375,1.875000,3.000000,0.000000,-3.130917,36.000000
0.025000,4.524548,7.380192,0.601667,1.900000,0.000000,0.000000,-3.125843,36.000000
0.025000,4.500000,7.380000,0.625812,1.900000,0.000000,0.000000,-3.141593,36.000000
0.025000,4.450548,7.380160,0.675187,1.975000,3.000000,0.000000,3.135161,37.000000
0.025000,4.399240,7.380656,0.726437,2.050000,3.000000,0.000000,3.128706,38.000000
0.025000,4.346078,7.381514,0.779562,2.125000,3.000000,0.000000,3.122256,39.000000
0.025000,4.291063,7.382756,0.834562,2.200000,3.000000,0.000000,3.115836,40.000000
0.025000,4.234197,7.384403,0.891437,2.275000,3.000000,0.000000,3.109474,41.000000
0.025000,4.175481,7.386476,0.950187,2.350000,3.000000,0.000000,3.103200,42.000000
0.025000,4.114916,7.388990,1.010812,2.425000,3.000000,0.000000,3.097044,43.000000
0.025000,4.052503,7.391962,1.073312,2.500000,3.000000,0.000000,3.091035,44.000000
0.025000,3.988243,7.395404,1.137687,2.575000,3.000000,0.000000,3.085206,45.000000
0.025000,3.975145,7.396151,1.150812,2.600000,0.000000,0.000000,3.084062,45.000000
0.025000,3.910291,7.400065,1.215812,2.600000,0.000000,0.000000,3.078623,46.000000
0.025000,3.845459,7.404320,1.280812,2.600000,0.000000,0.000000,3.073556,47.000000
0.025000,3.780648,7.408891,1.345812,2.600000,0.000000,0.000000,3.068864,48.000000
0.025000,3.715857,7.413754,1.410812,2.600000,0.000000,0.000000,3.064545,49.000000
0.025000,3.651084,7.418885,1.475812,2.600000,0.000000,0.000000,3.060601,50.000000
0.025000,3.586327,7.424260,1.540812,2.600000,0.000000,0.000000,3.057030,51.000000
0.025000,3.521584,7.429854,1.605812,2.600000,0.000000,0.000000,3.053833,52.000000
0.025000,3.456855,7.435643,1.670812,2.600000,0.000000,0.000000,3.051010,53.000000
0.025000,3.392137,7.441604,1.735812,2.600000,0.000000,0.000000,3.048560,54.000000
0.025000,3.327429,7.447711,1.800812,2.600000,0.000000,0.000000,3.046484,55.000000
0.025000,3.262729,7.453941,1.865812,2.600000,0.000000,0.000000,3.044781,56.000000
0.025000,3.198035,7.460269,1.930812,2.600000,0.000000,0.000000,3.043452,57.000000
0.025000,3.133347,7.466671,1.995812,2.600000,0.000000,0.000000,3.042496,58.000000
0.025000,3.068661,7.473123,2.060812,2.600000,0.000000,0.000000,3.041914,59.000000
0.025000,3.003978,7.479601,2.125812,2.600000,0.000000,0.000000,3.041704,60.000000
0.025000,2.939295,7.486081,2.190812,2.600000,0.000000,0.000000,3.041868,61.000000
0.025000,2.874610,7.492537,2.255812,2.600000,0.000000,0.000000,3.042405,62.000000
0.025000,2.809922,7.498947,2.320812,2.600000,0.000000,0.000000,3.043315,64.000000
0.025000,2.745229,7.505286,2.385812,2.600000,0.000000,0.000000,3.044598,65.000000
0.025000,2.680530,7.511529,2.450812,2.600000,0.000000,0.000000,3.046254,66.000000
0.025000,2.624456,7.516843,2.507141,2.600000,0.000000,0.000000,3.047992,67.000000
0.025000,2.561607,7.522673,2.570266,2.525000,-3.000000,0.000000,3.050273,68.000000
0.025000,2.500616,7.528181,2.631516,2.450000,-3.000000,0.000000,3.052822,70.000000
0.025000,2.441481,7.533363,2.690891,2.375000,-3.000000,0.000000,3.055611,71.000000
0.025000,2.384202,7.538215,2.748391,2.300000,-3.000000,0.000000,3.058609,72.000000
0.025000,2.328780,7.542737,2.804016,2.225000,-3.000000,0.000000,3.061787,74.000000
0.025000,2.275214,7.546933,2.857766,2.150000,-3.000000,0.000000,3.065118,75.000000
0.025000,2.223506,7.550806,2.909641,2.075000,-3.000000,0.000000,3.068576,77.000000
0.025000,2.173654,7.554364,2.959641,2.000000,-3.000000,0.000000,3.072134,78.000000
0.025000,2.125660,7.557616,3.007766,1.925000,-3.000000,0.000000,3.075767,80.000000
0.025000,2.079526,7.560573,3.054016,1.850000,-3.000000,0.000000,3.079452,82.000000
0.025000,2.035250,7.563246,3.098391,1.775000,-3.000000,0.000000,3.083165,84.000000
0.025000,1.992835,7.565648,3.140891,1.700000,-3.000000,0.000000,3.086884,86.000000
0.025000,1.952281,7.567794,3.181516,1.625000,-3.000000,0.000000,3.090588,90.000000
0.025000,1.913589,7.569699,3.220266,1.550000,-3.000000,0.000000,3.094257,93.000000
0.025000,1.876760,7.571377,3.257141,1.475000,-3.000000,0.000000,3.097871,93.000000
0.025000,1.841796,7.572845,3.292141,1.400000,-3.000000,0.000000,3.101411,93.000000
0.025000,1.808697,7.574119,3.325266,1.325000,-3.000000,0.000000,3.104861,93.000000
0.025000,1.777465,7.575215,3.356516,1.250000,-3.000000,0.000000,3.108204,93.000000
0.025000,1.748100,7.576148,3.385891,1.175000,-3.000000,0.000000,3.111425,93.000000
0.025000,1.720604,7.576936,3.413391,1.100000,-3.000000,0.000000,3.114508,93.000000
0.025000,1.694977,7.577592,3.439016,1.025000,-3.000000,0.000000,3.117440,93.000000
0.025000,1.671221,7.578134,3.462766,0.950000,-3.000000,0.000000,3.120209,93.000000
0.025000,1.649336,7.578573,3.484641,0.875000,-3.000000,0.000000,3.122802,93.000000
0.025000,1.629324,7.578925,3.504641,0.800000,-3.000000,0.000000,3.125210,93.000000
0.025000,1.611186,7.579202,3.522766,0.725000,-3.000000,0.000000,3.127422,93.000000
0.025000,1.594921,7.579417,3.539016,0.650000,-3.000000,0.000000,3.129429,93.000000
0.025000,1.580531,7.579579,3.553391,0.575000,-3.000000,0.000000,3.131224,93.000000
0.025000,1.568017,7.579699,3.565891,0.500000,-3.000000,0.000000,3.132799,93.000000
0.025000,1.557379,7.579785,3.576516,0.425000,-3.000000,0.000000,3.134149,93.000000
0.025000,1.548618,7.579845,3.585266,0.350000,-3.000000,0.000000,3.135267,93.000000
0.025000,1.541733,7.579886,3.592141,0.275000,-3.000000,0.000000,3.136151,93.000000
0.025000,1.536726,7.579912,3.597141,0.200000,-3.000000,0.000000,3.136796,93.000000
0.025000,1.533596,7.579926,3.600266,0.125000,-3.000000,0.000000,3.137200,93.000000
0.025000,1.532344,7.579931,3.601516,0.050000,-3.000000,0.000000,3.137362,93.000000
0.025000,1.500000,7.580000,3.633807,0.000000,0.000000,0.000000,3.141593,93.000000
