dt,x,y,position,velocity,acceleration,jerk,heading,lookahead
0.025,5.1,0.7,0,0,3,0,2.617994,22
0.025,5.09833,0.700962,0.001875,0.075,3,0,2.619778,22
0.025,5.094989,0.702875,0.005625,0.15,3,0,2.623347,22
0.025,5.08997,0.70572,0.01125,0.225,3,0,2.628699,23
0.025,5.083266,0.709464,0.01875,0.3,3,0,2.635835,23
0.025,5.074866,0.714066,0.028125,0.375,3,0,2.644752,23
0.025,5.064759,0.719477,0.039375,0.45,3,0,2.655446,23
0.025,5.052928,0.725635,0.0525,0.525,3,0,2.667911,24
0.025,5.039357,0.73247,0.0675,0.6,3,0,2.682133,24
0.025,5.024025,0.739904,0.084375,0.675,3,0,2.698096,24
0.025,5.006911,0.74785,0.103125,0.75,3,0,2.715775,25
0.025,4.987992,0.756211,0.12375,0.825,3,0,2.735136,25
0.025,4.96724,0.764886,0.14625,0.9,3,0,2.756134,26
0.025,4.944629,0.773764,0.170625,0.975,3,0,2.778711,26
0.025,4.920131,0.78273,0.196875,1.05,3,0,2.802796,28
0.025,4.893713,0.791661,0.225,1.125,3,0,2.828302,27
0.025,4.865345,0.800432,0.255,1.2,3,0,2.855125,27
0.025,4.834995,0.80891,0.286875,1.275,3,0,2.883145,27
0.025,4.802628,0.816964,0.320625,1.35,3,0,2.912223,27
0.025,4.76821,0.824455,0.35625,1.425,3,0,2.942206,27
0.025,4.731708,0.831246,0.39375,1.5,3,0,2.972925,27
0.025,4.693086,0.837199,0.433125,1.575,3,0,3.004198,27
0.025,4.65231,0.842177,0.474375,1.65,3,0,3.035833,27
0.025,4.609346,0.846043,0.5175,1.725,3,0,3.067632,27
0.025,4.564161,0.848664,0.5625,1.8,3,0,3.099393,27
0.025,4.516722,0.849911,0.609375,1.875,3,0,3.130917,36
0.025,4.5,0.85,0.625812,1.9,0,0,3.141593,36
0.025,4.450548,0.84984,0.675187,1.975,3,0,-3.135161,37
0.025,4.39924,0.849344,0.726437,2.05,3,0,-3.128706,38
0.025,4.346078,0.848486,0.779562,2.125,3,0,-3.122256,39
0.025,4.291063,0.847244,0.834562,2.2,3,0,-3.115836,40
0.025,4.234197,0.845597,0.891437,2.275,3,0,-3.109474,41
0.025,4.175481,0.843524,0.950187,2.35,3,0,-3.1032,42
0.025,4.114916,0.84101,1.010812,2.425,3,0,-3.097044,43
0.025,4.052503,0.838038,1.073312,2.5,3,0,-3.091035,44
0.025,3.988243,0.834596,1.137687,2.575,3,0,-3.085206,45
0.025,3.975145,0.833849,1.150812,2.6,0,0,-3.084062,45
0.025,3.910291,0.829935,1.215812,2.6,0,0,-3.078623,46
0.025,3.845459,0.82568,1.280812,2.6,0,0,-3.073556,47
0.025,3.780648,0.821109,1.345812,2.6,0,0,-3.068864,48
0.025,3.715857,0.816246,1.410812,2.6,0,0,-3.064545,49
0.025,3.651084,0.811115,1.475812,2.6,0,0,-3.060601,50
0.025,3.586327,0.80574,1.540812,2.6,0,0,-3.05703,51
0.025,3.521584,0.800146,1.605812,2.6,0,0,-3.053833,52
0.025,3.456855,0.794357,1.670812,2.6,0,0,-3.05101,53
0.025,3.392137,0.788396,1.735812,2.6,0,0,-3.04856,54
0.025,3.327429,0.782289,1.800812,2.6,0,0,-3.046484,55
0.025,3.262729,0.776059,1.865812,2.6,0,0,-3.044781,56
0.025,3.198035,0.769731,1.930812,2.6,0,0,-3.043452,57
0.025,3.133347,0.763329,1.995812,2.6,0,0,-3.042496,58
0.025,3.068661,0.756877,2.060812,2.6,0,0,-3.041914,59
0.025,3.003978,0.750399,2.125812,2.6,0,0,-3.041704,60
0.025,2.939295,0.743919,2.190812,2.6,0,0,-3.041868,61
0.025,2.87461,0.737463,2.255812,2.6,0,0,-3.042405,62
0.025,2.809922,0.731053,2.320812,2.6,0,0,-3.043315,64
0.025,2.745229,0.724714,2.385812,2.6,0,0,-3.044598,65
0.025,2.68053,0.718471,2.450812,2.6,0,0,-3.046254,66
0.025,2.624456,0.713157,2.507141,2.6,0,0,-3.047992,67
0.025,2.561607,0.707327,2.570266,2.525,-3,0,-3.050273,68
0.025,2.500616,0.701819,2.631516,2.45,-3,0,-3.052822,70
0.025,2.441481,0.696637,2.690891,2.375,-3,0,-3.055611,71
0.025,2.384202,0.691785,2.748391,2.3,-3,0,-3.058609,72
0.025,2.32878,0.687263,2.804016,2.225,-3,0,-3.061787,74
0.025,2.275214,0.683067,2.857766,2.15,-3,0,-3.065118,75
0.025,2.223506,0.679194,2.909641,2.075,-3,0,-3.068576,77
0.025,2.173654,0.675636,2.959641,2,-3,0,-3.072134,78
0.025,2.12566,0.672384,3.007766,1.925,-3,0,-3.075767,80
0.025,2.079526,0.669427,3.054016,1.85,-3,0,-3.079452,82
0.025,2.03525,0.666754,3.098391,1.775,-3,0,-3.083165,84
0.025,1.992835,0.664352,3.140891,1.7,-3,0,-3.086884,86
0.025,1.952281,0.662206,3.181516,1.625,-3,0,-3.090588,90
0.025,1.913589,0.660301,3.220266,1.55,-3,0,-3.094257,93
0.025,1.87676,0.658623,3.257141,1.475,-3,0,-3.097871,93
0.025,1.841796,0.657155,3.292141,1.4,-3,0,-3.101411,93
0.025,1.808697,0.655881,3.325266,1.325,-3,0,-3.104861,93
0.025,1.777465,0.654785,3.356516,1.25,-3,0,-3.108204,93
0.025,1.7481,0.653852,3.385891,1.175,-3,0,-3.111425,93
0.025,1.720604,0.653064,3.413391,1.1,-3,0,-3.114508,93
0.025,1.694977,0.652408,3.439016,1.025,-3,0,-3.11744,93
0.025,1.671221,0.651866,3.462766,0.95,-3,0,-3.120209,93
0.025,1.649336,0.651427,3.484641,0.875,-3,0,-3.122802,93
0.025,1.629324,0.651075,3.504641,0.8,-3,0,-3.12521,93
0.025,1.611186,0.650798,3.522766,0.725,-3,0,-3.127422,93
0.025,1.594921,0.650583,3.539016,0.65,-3,0,-3.129429,93
0.025,1.580531,0.650421,3.553391,0.575,-3,0,-3.131224,93
0.025,1.568017,0.650301,3.565891,0.5,-3,0,-3.132799,93
0.025,1.557379,0.650215,3.576516,0.425,-3,0,-3.134149,93
0.025,1.548618,0.650155,3.585266,0.35,-3,0,-3.135267,93
0.025,1.541733,0.650114,3.592141,0.275,-3,0,-3.136151,93
0.025,1.536726,0.650088,3.597141,0.2,-3,0,-3.136796,93
0.025,1.533596,0.650074,3.600266,0.125,-3,0,-3.1372,93
0.025,1.532344,0.650069,3.601516,0.05,-3,0,-3.137362,93
0.025,1.5,0.65,3.633807,0,0,0,-3.141593,93
