dt,x,y,position,velocity,acceleration,jerk,heading,lookahead
0.050000,1.000000,1.000000,0.000000,0.000000,3.000000,0.000000,0.000000,11.000000
0.050000,1.004618,1.000003,0.003750,0.150000,3.000000,0.000000,0.001156,11.000000
0.050000,1.018439,1.000043,0.015000,0.300000,3.000000,0.000000,0.004642,11.000000
0.050000,1.041368,1.000216,0.033750,0.450000,3.000000,0.000000,0.010505,11.000000
0.050000,1.073244,1.000683,0.060000,0.600000,3.000000,0.000000,0.018828,11.000000
0.050000,1.113843,1.001668,0.093750,0.750000,3.000000,0.000000,0.029728,12.000000
0.050000,1.162877,1.003458,0.135000,0.900000,3.000000,0.000000,0.043361,12.000000
0.050000,1.219994,1.006407,0.183750,1.050000,3.000000,0.000000,0.059924,13.000000
0.050000,1.284777,1.010930,0.240000,1.200000,3.000000,0.000000,0.079659,14.000000
0.050000,1.356747,1.017508,0.303750,1.350000,3.000000,0.000000,0.102857,14.000000
0.050000,1.435358,1.026685,0.375000,1.500000,3.000000,0.000000,0.129861,15.000000
0.050000,1.520002,1.039070,0.453750,1.650000,3.000000,0.000000,0.161070,16.000000
0.050000,1.610007,1.055335,0.540000,1.800000,3.000000,0.000000,0.196937,17.000000
0.050000,1.704636,1.076216,0.633750,1.950000,3.000000,0.000000,0.237969,18.000000
0.050000,1.803090,1.102515,0.735000,2.100000,3.000000,0.000000,0.284709,19.000000
0.050000,1.904502,1.135095,0.843750,2.250000,3.000000,0.000000,0.337714,19.000000
0.050000,2.007944,1.174886,0.960000,2.400000,3.000000,0.000000,0.397513,20.000000
0.050000,2.112425,1.222880,1.083750,2.550000,3.000000,0.000000,0.464535,21.000000
0.050000,2.216886,1.280133,1.215000,2.700000,3.000000,0.000000,0.539017,22.000000
0.050000,2.320208,1.347768,1.353750,2.850000,3.000000,0.000000,0.620886,23.000000
0.050000,2.421205,1.426968,1.500000,3.000000,0.000000,0.000000,0.709630,24.000000
0.050000,2.516359,1.516631,1.650000,3.000000,0.000000,0.000000,0.801891,25.000000
0.050000,2.602973,1.614833,1.800000,3.000000,0.000000,0.000000,0.893874,26.000000
0.050000,2.681049,1.721575,1.950000,3.000000,0.000000,0.000000,0.984055,27.000000
0.050000,2.750585,1.836857,2.100000,3.000000,0.000000,0.000000,1.071084,28.000000
0.050000,2.811581,1.960677,2.250000,3.000000,0.000000,0.000000,1.153890,29.000000
0.050000,2.864039,2.093037,2.400000,3.000000,0.000000,0.000000,1.231729,30.000000
0.050000,2.907957,2.233936,2.550000,3.000000,0.000000,0.000000,1.304181,31.000000
0.050000,2.943335,2.383375,2.700000,3.000000,0.000000,0.000000,1.371105,32.000000
0.050000,2.970174,2.541353,2.850000,3.000000,0.000000,0.000000,1.432578,33.000000
0.050000,2.988474,2.707871,3.000000,3.000000,0.000000,0.000000,1.488830,34.000000
0.032150,2.995730,2.819452,3.096450,3.000000,0.000000,0.000000,1.522392,34.000000
0.050000,3.000000,3.000000,3.246450,3.000000,0.000000,0.000000,1.570796,35.000000
0.050000,3.004486,3.184952,3.400200,3.150000,3.000000,0.000000,1.521123,37.000000
0.050000,3.018829,3.369287,3.561450,3.300000,3.000000,0.000000,1.463752,38.000000
0.016667,3.026037,3.430359,3.616867,3.350000,3.000000,0.000000,1.442707,38.000000
0.050000,3.055677,3.611718,3.788117,3.500000,0.000000,0.000000,1.373148,39.000000
0.050000,3.097465,3.785551,3.963117,3.500000,0.000000,0.000000,1.294738,40.000000
0.050000,3.150875,3.947761,4.138117,3.500000,0.000000,0.000000,1.208819,42.000000
0.050000,3.215909,4.098347,4.313117,3.500000,0.000000,0.000000,1.115709,43.000000
0.050000,3.292565,4.237311,4.488117,3.500000,0.000000,0.000000,1.016269,44.000000
0.050000,3.380845,4.364652,4.663117,3.500000,0.000000,0.000000,0.911970,45.000000
0.050000,3.480747,4.480369,4.838117,3.500000,0.000000,0.000000,0.804838,46.000000
0.029938,3.546128,4.544093,4.942901,3.500000,0.000000,0.000000,0.740318,47.000000
0.050000,3.664613,4.641229,5.117901,3.500000,0.000000,0.000000,0.633653,48.000000
0.050000,3.791812,4.725030,5.289151,3.350000,-3.000000,0.000000,0.532510,49.000000
0.050000,3.923849,4.794752,5.452901,3.200000,-3.000000,0.000000,0.440462,50.000000
0.050000,4.059326,4.851792,5.609151,3.050000,-3.000000,0.000000,0.357931,51.000000
0.050000,4.196910,4.897485,5.757901,2.900000,-3.000000,0.000000,0.284709,52.000000
0.050000,4.335331,4.933101,5.899151,2.750000,-3.000000,0.000000,0.220199,53.000000
0.050000,4.473381,4.959846,6.032901,2.600000,-3.000000,0.000000,0.163609,54.000000
0.050000,4.609919,4.978862,6.159151,2.450000,-3.000000,0.000000,0.114087,55.000000
0.050000,4.743867,4.991228,6.277901,2.300000,-3.000000,0.000000,0.070805,56.000000
0.050000,4.874211,4.997957,6.389151,2.150000,-3.000000,0.000000,0.033001,58.000000
0.050000,5.000000,5.000000,6.492901,2.000000,0.000000,0.000000,0.000000,59.000000
0.050000,5.098298,4.998009,6.592901,2.000000,0.000000,0.000000,-0.036185,60.000000
0.050000,5.198054,4.993590,6.692901,2.000000,0.000000,0.000000,-0.048524,61.000000
0.050000,5.297869,4.989072,6.792901,2.000000,0.000000,0.000000,-0.038131,62.000000
0.050000,5.396346,4.986784,6.892901,2.000000,0.000000,0.000000,-0.004067,64.000000
0.050000,5.492086,4.989056,6.992901,2.000000,0.000000,0.000000,0.056688,65.000000
0.050000,5.583693,4.998219,7.092901,2.000000,0.000000,0.000000,0.149137,67.000000
0.050000,5.669768,5.016600,7.192901,2.000000,0.000000,0.000000,0.279394,68.000000
0.050000,5.748914,5.046530,7.292901,2.000000,0.000000,0.000000,0.451595,68.000000
0.050000,5.819732,5.090339,7.392901,2.000000,0.000000,0.000000,0.661455,69.000000
0.050000,5.880826,5.150356,7.492901,2.000000,0.000000,0.000000,0.890347,70.000000
0.004447,5.885742,5.156557,7.501795,2.000000,0.000000,0.000000,0.910683,70.000000
0.050000,5.934657,5.236873,7.601795,2.000000,0.000000,0.000000,1.128661,71.000000
0.050000,5.969811,5.334053,7.698045,1.850000,-3.000000,0.000000,1.308636,72.000000
0.050000,5.990770,5.442754,7.786795,1.700000,-3.000000,0.000000,1.443778,73.000000
0.016667,5.994929,5.481003,7.814712,1.650000,-3.000000,0.000000,1.480479,74.000000
0.050000,6.000000,5.600000,7.893462,1.500000,0.000000,0.000000,1.570796,75.000000
0.050000,5.995396,5.713704,7.968462,1.500000,0.000000,0.000000,1.656379,77.000000
0.050000,5.981975,5.812715,8.043462,1.500000,0.000000,0.000000,1.760165,79.000000
0.050000,5.960329,5.898016,8.118462,1.500000,0.000000,0.000000,1.884589,80.000000
0.050000,5.931046,5.970590,8.193462,1.500000,0.000000,0.000000,2.030060,81.000000
0.050000,5.894716,6.031418,8.268462,1.500000,0.000000,0.000000,2.193061,82.000000
0.050000,5.851929,6.081485,8.343462,1.500000,0.000000,0.000000,2.365071,83.000000
0.050000,5.803274,6.121772,8.418462,1.500000,0.000000,0.000000,2.534132,84.000000
0.050000,5.749341,6.153262,8.493462,1.500000,0.000000,0.000000,2.688900,85.000000
0.050000,5.690720,6.176939,8.568462,1.500000,0.000000,0.000000,2.822198,86.000000
0.050000,5.628000,6.193784,8.643462,1.500000,0.000000,0.000000,2.931675,87.000000
0.050000,5.561772,6.204781,8.718462,1.500000,0.000000,0.000000,3.018295,87.000000
0.050000,5.492623,6.210913,8.793462,1.500000,0.000000,0.000000,3.084472,89.000000
0.050000,5.421146,6.213162,8.868462,1.500000,0.000000,0.000000,3.132830,90.000000
0.050000,5.347928,6.212510,8.943462,1.500000,0.000000,0.000000,3.165595,90.000000
0.050000,5.273559,6.209942,9.018462,1.500000,0.000000,0.000000,3.184376,91.000000
0.050000,5.198630,6.206438,9.093462,1.500000,0.000000,0.000000,3.190121,91.000000
0.050000,5.123730,6.202983,9.168462,1.500000,0.000000,0.000000,3.183123,92.000000
0.033719,5.073532,6.201174,9.219041,1.500000,0.000000,0.000000,3.171056,92.000000
0.050000,5.000000,6.200000,9.294041,1.500000,0.000000,0.000000,-3.141593,93.000000
0.050000,4.831543,6.198678,9.372791,1.650000,3.000000,0.000000,-3.125555,94.000000
0.050000,4.656613,6.194240,9.459041,1.800000,3.000000,0.000000,-3.106437,95.000000
0.016667,4.597268,6.191942,9.489457,1.850000,3.000000,0.000000,-3.099272,95.000000
0.050000,4.417389,6.182198,9.585707,2.000000,0.000000,0.000000,-3.074995,96.000000
0.050000,4.242975,6.168176,9.685707,2.000000,0.000000,0.000000,-3.046897,98.000000
0.050000,4.080932,6.150289,9.785707,2.000000,0.000000,0.000000,-3.015424,99.000000
0.050000,3.930911,6.128644,9.885707,2.000000,0.000000,0.000000,-2.980052,100.000000
0.050000,3.792565,6.103351,9.985707,2.000000,0.000000,0.000000,-2.940168,101.000000
0.050000,3.665547,6.074518,10.085707,2.000000,0.000000,0.000000,-2.895072,103.000000
0.050000,3.549509,6.042254,10.185707,2.000000,0.000000,0.000000,-2.843975,104.000000
0.050000,3.444103,6.006667,10.285707,2.000000,0.000000,0.000000,-2.786015,105.000000
0.050000,3.348984,5.967866,10.385707,2.000000,0.000000,0.000000,-2.720306,107.000000
0.050000,3.263802,5.925959,10.485707,2.000000,0.000000,0.000000,-2.646015,108.000000
0.050000,3.188211,5.881055,10.585707,2.000000,0.000000,0.000000,-2.562508,110.000000
0.050000,3.121863,5.833263,10.685707,2.000000,0.000000,0.000000,-2.469549,111.000000
0.050000,3.064411,5.782690,10.785707,2.000000,0.000000,0.000000,-2.367556,112.000000
0.050000,3.015508,5.729447,10.885707,2.000000,0.000000,0.000000,-2.257827,113.000000
0.050000,2.974806,5.673640,10.985707,2.000000,0.000000,0.000000,-2.142647,114.000000
0.050000,2.941957,5.615379,11.085707,2.000000,0.000000,0.000000,-2.025139,115.000000
0.050000,2.916615,5.554772,11.185707,2.000000,0.000000,0.000000,-1.908839,116.000000
0.050000,2.898431,5.491929,11.285707,2.000000,0.000000,0.000000,-1.797114,117.000000
0.050000,2.887059,5.426956,11.385707,2.000000,0.000000,0.000000,-1.692643,118.000000
0.050000,2.882151,5.359964,11.485707,2.000000,0.000000,0.000000,-1.597150,118.000000
0.050000,2.883360,5.291060,11.585707,2.000000,0.000000,0.000000,-1.511410,119.000000
0.050000,2.890338,5.220353,11.685707,2.000000,0.000000,0.000000,-1.435444,120.000000
0.050000,2.902739,5.147952,11.785707,2.000000,0.000000,0.000000,-1.368771,121.000000
0.050000,2.920213,5.073965,11.885707,2.000000,0.000000,0.000000,-1.310638,122.000000
0.050000,2.942415,4.998501,11.985707,2.000000,0.000000,0.000000,-1.260186,123.000000
0.050000,2.968996,4.921668,12.085707,2.000000,0.000000,0.000000,-1.216558,124.000000
0.050000,2.999610,4.843575,12.185707,2.000000,0.000000,0.000000,-1.178954,124.000000
0.050000,3.033909,4.764331,12.285707,2.000000,0.000000,0.000000,-1.146666,125.000000
0.050000,3.071545,4.684043,12.385707,2.000000,0.000000,0.000000,-1.119076,126.000000
0.050000,3.112172,4.602822,12.485707,2.000000,0.000000,0.000000,-1.095662,127.000000
0.050000,3.155441,4.520774,12.585707,2.000000,0.000000,0.000000,-1.075987,128.000000
0.050000,3.201005,4.438009,12.685707,2.000000,0.000000,0.000000,-1.059691,129.000000
0.050000,3.248518,4.354635,12.785707,2.000000,0.000000,0.000000,-1.046481,130.000000
0.050000,3.297631,4.270761,12.885707,2.000000,0.000000,0.000000,-1.036126,131.000000
0.050000,3.347997,4.186496,12.985707,2.000000,0.000000,0.000000,-1.028447,132.000000
0.050000,3.399269,4.101947,13.085707,2.000000,0.000000,0.000000,-1.023313,133.000000
0.050000,3.451099,4.017224,13.185707,2.000000,0.000000,0.000000,-1.020640,134.000000
0.050000,3.503140,3.932435,13.285707,2.000000,0.000000,0.000000,-1.020382,135.000000
0.050000,3.555045,3.847689,13.385707,2.000000,0.000000,0.000000,-1.022535,136.000000
0.050000,3.606466,3.763093,13.485707,2.000000,0.000000,0.000000,-1.027134,138.000000
0.050000,3.657056,3.678758,13.585707,2.000000,0.000000,0.000000,-1.034257,139.000000
0.033725,3.690535,3.622075,13.653158,2.000000,0.000000,0.000000,-1.040546,140.000000
0.050000,3.738955,3.538417,13.753158,2.000000,0.000000,0.000000,-1.052189,141.000000
0.050000,3.783901,3.458415,13.849408,1.850000,-3.000000,0.000000,-1.066182,144.000000
0.050000,3.823632,3.385182,13.938158,1.700000,-3.000000,0.000000,-1.081708,147.000000
0.050000,3.858352,3.318655,14.019408,1.550000,-3.000000,0.000000,-1.098319,148.000000
0.050000,3.888337,3.258747,14.093158,1.400000,-3.000000,0.000000,-1.115555,148.000000
0.050000,3.913913,3.205356,14.159408,1.250000,-3.000000,0.000000,-1.132937,148.000000
0.050000,3.935432,3.158372,14.218158,1.100000,-3.000000,0.000000,-1.149974,148.000000
0.050000,3.953255,3.117683,14.269408,0.950000,-3.000000,0.000000,-1.166173,148.000000
0.050000,3.967733,3.083178,14.313158,0.800000,-3.000000,0.000000,-1.181050,148.000000
0.050000,3.979193,3.054756,14.349408,0.650000,-3.000000,0.000000,-1.194150,148.000000
0.050000,3.987924,3.032326,14.378158,0.500000,-3.000000,0.000000,-1.205061,148.000000
0.050000,3.994170,3.015813,14.399408,0.350000,-3.000000,0.000000,-1.213433,148.000000
0.050000,3.998115,3.005158,14.413158,0.200000,-3.000000,0.000000,-1.218994,148.000000
0.016667,3.998942,3.002900,14.416074,0.150000,-3.000000,0.000000,-1.220188,148.000000
0.050000,4.000000,3.000000,14.419824,0.000000,0.000000,0.000000,-1.221730,149.000000
