dt,x,y,position,velocity,acceleration,jerk,heading,lookahead
0.050000,6.800000,2.750000,0.000000,0.000000,4.000000,0.000000,-1.570796,10.000000
0.050000,6.799961,2.736459,0.010000,0.200000,4.000000,0.000000,-1.576607,10.000000
0.050000,6.799648,2.709642,0.030000,0.400000,4.000000,0.000000,-1.588385,11.000000
0.050000,6.798597,2.670069,0.060000,0.600000,4.000000,0.000000,-1.606446,11.000000
0.050000,6.796124,2.618512,0.100000,0.800000,4.000000,0.000000,-1.631268,12.000000
0.050000,6.791337,2.555973,0.150000,1.000000,4.000000,0.000000,-1.663488,13.000000
0.012500,6.789773,2.539902,0.163125,1.050000,4.000000,0.000000,-1.672164,13.000000
0.050000,6.785403,2.501092,0.195313,1.250000,0.000000,0.000000,-1.693826,14.000000
0.050000,6.774785,2.428132,0.257813,1.250000,0.000000,0.000000,-1.737416,15.000000
0.050000,6.761414,2.358269,0.320313,1.250000,0.000000,0.000000,-1.782955,16.000000
0.050000,6.745368,2.291415,0.382813,1.250000,0.000000,0.000000,-1.830316,17.000000
0.050000,6.726723,2.227485,0.445313,1.250000,0.000000,0.000000,-1.879323,19.000000
0.050000,6.705557,2.166391,0.507813,1.250000,0.000000,0.000000,-1.929747,20.000000
0.050000,6.681946,2.108048,0.570313,1.250000,0.000000,0.000000,-1.981308,21.000000
0.050000,6.655968,2.052368,0.632813,1.250000,0.000000,0.000000,-2.033683,22.000000
0.050000,6.627699,1.999265,0.695313,1.250000,0.000000,0.000000,-2.086512,23.000000
0.050000,6.597215,1.948653,0.757813,1.250000,0.000000,0.000000,-2.139411,24.000000
0.050000,6.564595,1.900446,0.820313,1.250000,0.000000,0.000000,-2.191986,25.000000
0.050000,6.529915,1.854555,0.882813,1.250000,0.000000,0.000000,-2.243850,26.000000
0.050000,6.493252,1.810896,0.945313,1.250000,0.000000,0.000000,-2.294637,27.000000
0.050000,6.454682,1.769381,1.007813,1.250000,0.000000,0.000000,-2.344012,28.000000
0.050000,6.414283,1.729925,1.070313,1.250000,0.000000,0.000000,-2.391685,29.000000
0.050000,6.372132,1.692439,1.132813,1.250000,0.000000,0.000000,-2.437413,30.000000
0.050000,6.328305,1.656839,1.195313,1.250000,0.000000,0.000000,-2.481003,31.000000
0.050000,6.282880,1.623037,1.257813,1.250000,0.000000,0.000000,-2.522316,32.000000
0.050000,6.235933,1.590947,1.320313,1.250000,0.000000,0.000000,-2.561256,33.000000
0.050000,6.187541,1.560483,1.382813,1.250000,0.000000,0.000000,-2.597770,34.000000
0.050000,6.137781,1.531557,1.445313,1.250000,0.000000,0.000000,-2.631842,35.000000
0.050000,6.086730,1.504083,1.507813,1.250000,0.000000,0.000000,-2.663483,36.000000
0.050000,6.034466,1.477975,1.570313,1.250000,0.000000,0.000000,-2.692727,37.000000
0.050000,5.981064,1.453147,1.632813,1.250000,0.000000,0.000000,-2.719625,38.000000
0.050000,5.926602,1.429511,1.695313,1.250000,0.000000,0.000000,-2.744239,39.000000
0.050000,5.871156,1.406982,1.757813,1.250000,0.000000,0.000000,-2.766638,40.000000
0.050000,5.814805,1.385472,1.820313,1.250000,0.000000,0.000000,-2.786895,40.000000
0.050000,5.757624,1.364895,1.882813,1.250000,0.000000,0.000000,-2.805082,41.000000
0.050000,5.699690,1.345165,1.945313,1.250000,0.000000,0.000000,-2.821272,42.000000
0.050000,5.641081,1.326195,2.007813,1.250000,0.000000,0.000000,-2.835529,43.000000
0.050000,5.581872,1.307899,2.070313,1.250000,0.000000,0.000000,-2.847918,44.000000
0.050000,5.522142,1.290189,2.132813,1.250000,0.000000,0.000000,-2.858493,45.000000
0.050000,5.461968,1.272981,2.195313,1.250000,0.000000,0.000000,-2.867304,47.000000
0.050000,5.401425,1.256186,2.257813,1.250000,0.000000,0.000000,-2.874393,48.000000
0.050000,5.340591,1.239718,2.320313,1.250000,0.000000,0.000000,-2.879794,49.000000
0.050000,5.279543,1.223492,2.382813,1.250000,0.000000,0.000000,-2.883534,49.000000
0.050000,5.218357,1.207420,2.445313,1.250000,0.000000,0.000000,-2.885630,50.000000
0.050000,5.157112,1.191416,2.507813,1.250000,0.000000,0.000000,-2.886094,51.000000
0.050000,5.095883,1.175393,2.570313,1.250000,0.000000,0.000000,-2.884928,52.000000
0.028476,5.061048,1.166226,2.605908,1.250000,0.000000,0.000000,-2.883533,52.000000
0.050000,5.000000,1.150000,2.668408,1.250000,0.000000,0.000000,-2.879793,53.000000
0.050000,4.929601,1.131289,2.740908,1.450000,4.000000,0.000000,-2.883829,53.000000
0.050000,4.849443,1.110355,2.823408,1.650000,4.000000,0.000000,-2.888454,53.000000
0.050000,4.759506,1.087339,2.915908,1.850000,4.000000,0.000000,-2.893680,54.000000
0.050000,4.659768,1.062403,3.018408,2.050000,4.000000,0.000000,-2.899519,54.000000
0.037500,4.579431,1.042768,3.100908,2.200000,4.000000,0.000000,-2.904257,54.000000
0.050000,4.166853,0.948334,3.523720,2.400000,0.000000,0.000000,-2.929059,57.000000
0.050000,4.049494,0.923449,3.643720,2.400000,0.000000,0.000000,-2.936255,58.000000
0.050000,3.932016,0.899426,3.763720,2.400000,0.000000,0.000000,-2.943520,59.000000
0.050000,3.814419,0.876272,3.883720,2.400000,0.000000,0.000000,-2.950853,60.000000
0.050000,3.696702,0.853993,4.003720,2.400000,0.000000,0.000000,-2.958253,61.000000
0.050000,3.578863,0.832597,4.123720,2.400000,0.000000,0.000000,-2.965719,62.000000
0.050000,3.460902,0.812091,4.243720,2.400000,0.000000,0.000000,-2.973252,63.000000
0.050000,3.342818,0.792483,4.363720,2.400000,0.000000,0.000000,-2.980849,64.000000
0.050000,3.224609,0.773781,4.483720,2.400000,0.000000,0.000000,-2.988511,65.000000
0.050000,3.106274,0.755990,4.603720,2.400000,0.000000,0.000000,-2.996236,66.000000
0.050000,2.987813,0.739119,4.723720,2.400000,0.000000,0.000000,-3.004024,67.000000
0.050000,2.869225,0.723175,4.843720,2.400000,0.000000,0.000000,-3.011874,68.000000
0.050000,2.750508,0.708165,4.963720,2.400000,0.000000,0.000000,-3.019784,69.000000
0.050000,2.631662,0.694096,5.083720,2.400000,0.000000,0.000000,-3.027755,70.000000
0.050000,2.512685,0.680976,5.203720,2.400000,0.000000,0.000000,-3.035783,71.000000
0.050000,2.393577,0.668813,5.323720,2.400000,0.000000,0.000000,-3.043870,72.000000
0.050000,2.274337,0.657612,5.443720,2.400000,0.000000,0.000000,-3.052012,73.000000
0.050000,2.154963,0.647382,5.563720,2.400000,0.000000,0.000000,-3.060210,74.000000
0.050000,2.035454,0.638131,5.683720,2.400000,0.000000,0.000000,-3.068461,75.000000
0.050000,1.915810,0.629864,5.803720,2.400000,0.000000,0.000000,-3.076766,77.000000
0.050000,1.796030,0.622590,5.923720,2.400000,0.000000,0.000000,-3.085121,78.000000
0.050000,1.676112,0.616316,6.043720,2.400000,0.000000,0.000000,-3.093527,79.000000
0.050000,1.556055,0.611049,6.163720,2.400000,0.000000,0.000000,-3.101981,80.000000
0.018582,1.511403,0.609350,6.208316,2.400000,0.000000,0.000000,-3.105134,81.000000
0.050000,1.391155,0.605476,6.328316,2.400000,0.000000,0.000000,-3.113652,83.000000
0.050000,1.280804,0.602825,6.438316,2.200000,-4.000000,0.000000,-3.121500,83.000000
0.050000,1.180381,0.601167,6.538316,2.000000,-4.000000,0.000000,-3.128666,83.000000
0.050000,1.089917,0.600290,6.628316,1.800000,-4.000000,0.000000,-3.135140,83.000000
0.050000,1.009436,0.600003,6.708316,1.600000,-4.000000,0.000000,-3.140915,83.000000
0.050000,1.000000,0.600000,6.778316,1.400000,-4.000000,0.000000,-3.141593,84.000000
0.050000,1.000000,0.600000,6.838316,1.200000,-4.000000,0.000000,-3.141593,85.000000
0.050000,1.000000,0.600000,6.888316,1.000000,-4.000000,0.000000,-3.141593,86.000000
0.050000,1.000000,0.600000,6.928316,0.800000,-4.000000,0.000000,-3.141593,87.000000
0.050000,1.000000,0.600000,6.958316,0.600000,-4.000000,0.000000,-3.141593,88.000000
0.050000,1.000000,0.600000,6.978316,0.400000,-4.000000,0.000000,-3.141593,88.000000
0.050000,1.000000,0.600000,6.988316,0.200000,-4.000000,0.000000,-3.141593,88.000000
0.050000,1.000000,0.600000,7.048316,0.000000,0.000000,0.000000,-3.141593,89.000000
