dt,x,y,position,velocity,acceleration,jerk,heading,lookahead
0.050000,9.000000,7.500000,0.000000,0.000000,1.000000,0.000000,3.141593,22.000000
0.050000,8.997500,7.500000,0.002500,0.050000,1.000000,0.000000,3.141593,22.000000
0.050000,8.992500,7.500000,0.007500,0.100000,1.000000,0.000000,3.141593,22.000000
0.050000,8.985000,7.500000,0.015000,0.150000,1.000000,0.000000,3.141593,22.000000
0.050000,8.975000,7.500000,0.025000,0.200000,1.000000,0.000000,3.141593,22.000000
0.050000,8.962500,7.500000,0.037500,0.250000,1.000000,0.000000,3.141593,22.000000
0.050000,8.947500,7.500000,0.052500,0.300000,1.000000,0.000000,3.141593,23.000000
0.050000,8.930000,7.500000,0.070000,0.350000,1.000000,0.000000,3.141593,23.000000
0.050000,8.910000,7.500000,0.090000,0.400000,1.000000,0.000000,3.141593,23.000000
0.050000,8.887500,7.500000,0.112500,0.450000,1.000000,0.000000,3.141593,24.000000
0.050000,8.862500,7.500000,0.137500,0.500000,1.000000,0.000000,3.141593,24.000000
0.050000,8.835000,7.500000,0.165000,0.550000,1.000000,0.000000,3.141593,25.000000
0.050000,8.805000,7.500000,0.195000,0.600000,1.000000,0.000000,3.141593,25.000000
0.050000,8.772500,7.500000,0.227500,0.650000,1.000000,0.000000,3.141593,26.000000
0.050000,8.737500,7.500000,0.262500,0.700000,1.000000,0.000000,3.141593,26.000000
0.050000,8.700000,7.500000,0.300000,0.750000,1.000000,0.000000,3.141593,27.000000
0.050000,8.660000,7.500000,0.340000,0.800000,1.000000,0.000000,3.141593,27.000000
0.050000,8.617500,7.500000,0.382500,0.850000,1.000000,0.000000,3.141593,28.000000
0.050000,8.572500,7.500000,0.427500,0.900000,1.000000,0.000000,3.141593,29.000000
0.050000,8.525000,7.500000,0.475000,0.950000,1.000000,0.000000,3.141593,29.000000
0.050000,8.475000,7.500000,0.525000,1.000000,1.000000,0.000000,3.141593,30.000000
0.050000,8.422500,7.500000,0.577500,1.050000,1.000000,0.000000,3.141593,31.000000
0.050000,8.367500,7.500000,0.632500,1.100000,1.000000,0.000000,3.141593,32.000000
0.050000,8.310000,7.500000,0.690000,1.150000,1.000000,0.000000,3.141593,32.000000
0.050000,8.250000,7.500000,0.750000,1.200000,1.000000,0.000000,3.141593,33.000000
0.050000,8.187500,7.500000,0.812500,1.250000,1.000000,0.000000,3.141593,34.000000
0.050000,8.122500,7.500000,0.877500,1.300000,1.000000,0.000000,3.141593,35.000000
0.050000,8.055000,7.500000,0.945000,1.350000,1.000000,0.000000,3.141593,36.000000
0.050000,7.985000,7.500000,1.015000,1.400000,1.000000,0.000000,3.141593,36.000000
0.050000,7.912500,7.500000,1.087500,1.450000,1.000000,0.000000,3.141593,37.000000
0.050000,7.837500,7.500000,1.162500,1.500000,1.000000,0.000000,3.141593,38.000000
0.050000,7.760000,7.500000,1.240000,1.550000,1.000000,0.000000,3.141593,39.000000
0.050000,7.680000,7.500000,1.320000,1.600000,1.000000,0.000000,3.141593,40.000000
0.050000,7.597500,7.500000,1.402500,1.650000,1.000000,0.000000,3.141593,41.000000
0.050000,7.512500,7.500000,1.487500,1.700000,1.000000,0.000000,3.141593,42.000000
0.050000,7.425000,7.500000,1.575000,1.750000,1.000000,0.000000,3.141593,43.000000
0.050000,7.335000,7.500000,1.665000,1.800000,1.000000,0.000000,3.141593,44.000000
0.050000,7.242500,7.500000,1.757500,1.850000,1.000000,0.000000,3.141593,45.000000
0.050000,7.147500,7.500000,1.852500,1.900000,1.000000,0.000000,3.141593,46.000000
0.050000,7.050000,7.500000,1.950000,1.950000,1.000000,0.000000,3.141593,47.000000
0.050000,7.000000,7.500000,2.000000,2.000000,0.000000,0.000000,3.141593,47.000000
0.050000,6.902500,7.500000,2.097500,1.950000,-1.000000,0.000000,3.141593,49.000000
0.050000,6.807500,7.500000,2.192500,1.900000,-1.000000,0.000000,3.141593,50.000000
0.050000,6.715000,7.500000,2.285000,1.850000,-1.000000,0.000000,3.141593,51.000000
0.050000,6.625000,7.500000,2.375000,1.800000,-1.000000,0.000000,3.141593,52.000000
0.050000,6.537500,7.500000,2.462500,1.750000,-1.000000,0.000000,3.141593,53.000000
0.050000,6.452500,7.500000,2.547500,1.700000,-1.000000,0.000000,3.141593,55.000000
0.050000,6.370000,7.500000,2.630000,1.650000,-1.000000,0.000000,3.141593,56.000000
0.050000,6.290000,7.500000,2.710000,1.600000,-1.000000,0.000000,3.141593,57.000000
0.050000,6.212500,7.500000,2.787500,1.550000,-1.000000,0.000000,3.141593,58.000000
0.050000,6.137500,7.500000,2.862500,1.500000,-1.000000,0.000000,3.141593,60.000000
0.050000,6.065000,7.500000,2.935000,1.450000,-1.000000,0.000000,3.141593,61.000000
0.050000,5.995000,7.500000,3.005000,1.400000,-1.000000,0.000000,3.141593,63.000000
0.050000,5.927500,7.500000,3.072500,1.350000,-1.000000,0.000000,3.141593,64.000000
0.050000,5.862500,7.500000,3.137500,1.300000,-1.000000,0.000000,3.141593,66.000000
0.050000,5.800000,7.500000,3.200000,1.250000,-1.000000,0.000000,3.141593,67.000000
0.050000,5.740000,7.500000,3.260000,1.200000,-1.000000,0.000000,3.141593,69.000000
0.050000,5.682500,7.500000,3.317500,1.150000,-1.000000,0.000000,3.141593,71.000000
0.050000,5.627500,7.500000,3.372500,1.100000,-1.000000,0.000000,3.141593,74.000000
0.050000,5.575000,7.500000,3.425000,1.050000,-1.000000,0.000000,3.141593,77.000000
0.050000,5.525000,7.500000,3.475000,1.000000,-1.000000,0.000000,3.141593,81.000000
0.050000,5.477500,7.500000,3.522500,0.950000,-1.000000,0.000000,3.141593,80.000000
0.050000,5.432500,7.500000,3.567500,0.900000,-1.000000,0.000000,3.141593,80.000000
0.050000,5.390000,7.500000,3.610000,0.850000,-1.000000,0.000000,3.141593,80.000000
0.050000,5.350000,7.500000,3.650000,0.800000,-1.000000,0.000000,3.141593,80.000000
0.050000,5.312500,7.500000,3.687500,0.750000,-1.000000,0.000000,3.141593,80.000000
0.050000,5.277500,7.500000,3.722500,0.700000,-1.000000,0.000000,3.141593,80.000000
0.050000,5.245000,7.500000,3.755000,0.650000,-1.000000,0.000000,3.141593,80.000000
0.050000,5.215000,7.500000,3.785000,0.600000,-1.000000,0.000000,3.141593,80.000000
0.050000,5.187500,7.500000,3.812500,0.550000,-1.000000,0.000000,3.141593,80.000000
0.050000,5.162500,7.500000,3.837500,0.500000,-1.000000,0.000000,3.141593,80.000000
0.050000,5.140000,7.500000,3.860000,0.450000,-1.000000,0.000000,3.141593,80.000000
0.050000,5.120000,7.500000,3.880000,0.400000,-1.000000,0.000000,3.141593,80.000000
0.050000,5.102500,7.500000,3.897500,0.350000,-1.000000,0.000000,3.141593,80.000000
0.050000,5.087500,7.500000,3.912500,0.300000,-1.000000,0.000000,3.141593,80.000000
0.050000,5.075000,7.500000,3.925000,0.250000,-1.000000,0.000000,3.141593,80.000000
0.050000,5.065000,7.500000,3.935000,0.200000,-1.000000,0.000000,3.141593,80.000000
0.050000,5.057500,7.500000,3.942500,0.150000,-1.000000,0.000000,3.141593,80.000000
0.050000,5.052500,7.500000,3.947500,0.100000,-1.000000,0.000000,3.141593,80.000000
0.050000,5.050000,7.500000,3.950000,0.050000,-1.000000,0.000000,3.141593,80.000000
0.050000,5.000000,7.500000,4.000000,0.000000,0.000000,0.000000,3.141593,80.000000
