dt,x,y,position,velocity,acceleration,jerk,heading,lookahead
0.050000,5.350000,4.150000,0.000000,0.000000,1.000000,0.000000,-2.757620,19.000000
0.050000,5.347579,4.149016,0.002500,0.050000,1.000000,0.000000,-2.753376,20.000000
0.050000,5.342761,4.147022,0.007500,0.100000,1.000000,0.000000,-2.744906,20.000000
0.050000,5.335592,4.143965,0.015000,0.150000,1.000000,0.000000,-2.732254,20.000000
0.050000,5.326139,4.139769,0.025000,0.200000,1.000000,0.000000,-2.715493,20.000000
0.050000,5.314489,4.134335,0.037500,0.250000,1.000000,0.000000,-2.694738,20.000000
0.050000,5.300750,4.127542,0.052500,0.300000,1.000000,0.000000,-2.670164,21.000000
0.050000,5.285041,4.119253,0.070000,0.350000,1.000000,0.000000,-2.642013,21.000000
0.050000,5.267498,4.109317,0.090000,0.400000,1.000000,0.000000,-2.610620,21.000000
0.050000,5.248261,4.097572,0.112500,0.450000,1.000000,0.000000,-2.576422,22.000000
0.050000,5.227479,4.083851,0.137500,0.500000,1.000000,0.000000,-2.539966,22.000000
0.050000,5.205298,4.067988,0.165000,0.550000,1.000000,0.000000,-2.501918,23.000000
0.050000,5.181860,4.049823,0.195000,0.600000,1.000000,0.000000,-2.463052,23.000000
0.050000,5.157296,4.029206,0.227500,0.650000,1.000000,0.000000,-2.424236,24.000000
0.050000,5.131719,4.006010,0.262500,0.700000,1.000000,0.000000,-2.386412,25.000000
0.050000,5.105219,3.980133,0.300000,0.750000,1.000000,0.000000,-2.350570,26.000000
0.050000,5.077855,3.951507,0.340000,0.800000,1.000000,0.000000,-2.317724,26.000000
0.050000,5.049646,3.920112,0.382500,0.850000,1.000000,0.000000,-2.288894,27.000000
0.050000,5.020565,3.885977,0.427500,0.900000,1.000000,0.000000,-2.265105,29.000000
0.050000,4.990529,3.849198,0.475000,0.950000,1.000000,0.000000,-2.247395,30.000000
0.050000,4.959388,3.809943,0.525000,1.000000,1.000000,0.000000,-2.236839,31.000000
0.050000,4.926920,3.768466,0.577500,1.050000,1.000000,0.000000,-2.234587,33.000000
0.050000,4.897063,3.730476,0.625676,1.021985,-1.000000,0.000000,-2.240461,35.000000
0.050000,4.866624,3.692514,0.674275,0.971985,-1.000000,0.000000,-2.254136,38.000000
0.050000,4.837225,3.657100,0.720374,0.921985,-1.000000,0.000000,-2.274394,44.000000
0.050000,4.808750,3.624367,0.763974,0.871985,-1.000000,0.000000,-2.300184,43.000000
0.050000,4.781144,3.594378,0.805073,0.821985,-1.000000,0.000000,-2.330485,43.000000
0.050000,4.754401,3.567136,0.843672,0.771985,-1.000000,0.000000,-2.364282,43.000000
0.050000,4.728562,3.542599,0.879771,0.721985,-1.000000,0.000000,-2.400567,43.000000
0.050000,4.703698,3.520683,0.913371,0.671985,-1.000000,0.000000,-2.438345,43.000000
0.050000,4.679910,3.501275,0.944470,0.621985,-1.000000,0.000000,-2.476659,43.000000
0.050000,4.657319,3.484238,0.973069,0.571985,-1.000000,0.000000,-2.514610,43.000000
0.050000,4.636060,3.469419,0.999168,0.521985,-1.000000,0.000000,-2.551381,43.000000
0.050000,4.616274,3.456657,1.022768,0.471985,-1.000000,0.000000,-2.586254,43.000000
0.050000,4.598109,3.445787,1.043867,0.421985,-1.000000,0.000000,-2.618625,43.000000
0.050000,4.581705,3.436647,1.062466,0.371985,-1.000000,0.000000,-2.647999,43.000000
0.050000,4.567199,3.429084,1.078566,0.321985,-1.000000,0.000000,-2.673991,43.000000
0.050000,4.554717,3.422954,1.092165,0.271985,-1.000000,0.000000,-2.696310,43.000000
0.050000,4.544369,3.418133,1.103264,0.221985,-1.000000,0.000000,-2.714743,43.000000
0.050000,4.536252,3.414511,1.111863,0.171985,-1.000000,0.000000,-2.729143,43.000000
0.050000,4.530441,3.412004,1.117963,0.121985,-1.000000,0.000000,-2.739414,43.000000
0.050000,4.526990,3.410548,1.121562,0.071985,-1.000000,0.000000,-2.745495,43.000000
0.050000,4.525933,3.410107,1.122661,0.021985,-1.000000,0.000000,-2.747356,43.000000
0.050000,4.500000,3.400000,1.149153,0.000000,0.000000,0.000000,-2.792527,43.000000
