dt,x,y,position,velocity,acceleration,jerk,heading,lookahead
0.050000,10.000000,7.500000,0.000000,0.000000,3.500000,0.000000,2.967060,11.000000
0.050000,9.991268,7.501522,0.008750,0.175000,3.500000,0.000000,2.971027,11.000000
0.050000,9.973804,7.504459,0.026250,0.350000,3.500000,0.000000,2.978873,11.000000
0.050000,9.947608,7.508604,0.052500,0.525000,3.500000,0.000000,2.990417,12.000000
0.050000,9.912680,7.513656,0.087500,0.700000,3.500000,0.000000,3.005380,12.000000
0.050000,9.869021,7.519238,0.131250,0.875000,3.500000,0.000000,3.023373,13.000000
0.050000,9.816629,7.524911,0.183750,1.050000,3.500000,0.000000,3.043894,13.000000
0.050000,9.755505,7.530203,0.245000,1.225000,3.500000,0.000000,3.066317,14.000000
0.050000,9.685649,7.534631,0.315000,1.400000,3.500000,0.000000,3.089889,14.000000
0.050000,9.607062,7.537740,0.393750,1.575000,3.500000,0.000000,3.113735,15.000000
0.050000,9.519742,7.539137,0.481250,1.750000,3.500000,0.000000,3.136860,16.000000
0.050000,9.423691,7.538534,0.577500,1.925000,3.500000,0.000000,3.158163,17.000000
0.050000,9.329956,7.536170,0.671429,2.000000,0.000000,0.000000,3.174760,18.000000
0.050000,9.230162,7.532164,0.771429,2.000000,0.000000,0.000000,3.187881,19.000000
0.050000,9.130368,7.527081,0.871429,2.000000,0.000000,0.000000,3.196318,20.000000
0.050000,9.030574,7.521387,0.971429,2.000000,0.000000,0.000000,3.200082,21.000000
0.050000,8.930781,7.515549,1.071429,2.000000,0.000000,0.000000,3.199178,22.000000
0.050000,8.830987,7.510036,1.171429,2.000000,0.000000,0.000000,3.193606,24.000000
0.050000,8.731193,7.505315,1.271429,2.000000,0.000000,0.000000,3.183356,25.000000
0.050000,8.631399,7.501852,1.371429,2.000000,0.000000,0.000000,3.168419,25.000000
0.050000,8.531605,7.500115,1.471429,2.000000,0.000000,0.000000,3.148788,26.000000
0.050000,8.500000,7.500000,1.503099,2.000000,0.000000,0.000000,3.141593,26.000000
0.050000,8.391188,7.500045,1.611849,2.175000,3.500000,0.000000,-3.142351,27.000000
0.050000,8.273614,7.500158,1.729349,2.350000,3.500000,0.000000,-3.142670,28.000000
0.050000,8.147283,7.500286,1.855599,2.525000,3.500000,0.000000,-3.142432,29.000000
0.050000,8.012206,7.500345,1.990599,2.700000,3.500000,0.000000,-3.141513,30.000000
0.050000,7.868394,7.500218,2.134349,2.875000,3.500000,0.000000,-3.139778,31.000000
0.050000,7.715866,7.499747,2.286849,3.050000,3.500000,0.000000,-3.137083,31.000000
0.050000,7.554645,7.498726,2.448099,3.225000,3.500000,0.000000,-3.133277,32.000000
0.050000,7.384759,7.496898,2.618099,3.400000,3.500000,0.000000,-3.128197,33.000000
0.050000,7.206244,7.493941,2.796849,3.575000,3.500000,0.000000,-3.121669,34.000000
0.050000,7.019142,7.489471,2.984349,3.750000,3.500000,0.000000,-3.113512,36.000000
0.050000,6.823505,7.483023,3.180599,3.925000,3.500000,0.000000,-3.103532,37.000000
0.050000,6.786859,7.481590,3.217385,4.000000,0.000000,0.000000,-3.101497,37.000000
0.050000,6.587772,7.472435,3.417385,4.000000,0.000000,0.000000,-3.089522,38.000000
0.050000,6.388965,7.460752,3.617385,4.000000,0.000000,0.000000,-3.076005,39.000000
0.050000,6.236925,7.449907,3.770549,4.000000,0.000000,0.000000,-3.064611,40.000000
0.050000,6.047361,7.433829,3.961799,3.825000,-3.500000,0.000000,-3.049115,41.000000
0.050000,5.866787,7.415635,4.144299,3.650000,-3.500000,0.000000,-3.033018,42.000000
0.050000,5.695182,7.395511,4.318049,3.475000,-3.500000,0.000000,-3.016509,44.000000
0.050000,5.532520,7.373688,4.483049,3.300000,-3.500000,0.000000,-2.999774,45.000000
0.050000,5.378772,7.350430,4.639299,3.125000,-3.500000,0.000000,-2.982985,46.000000
0.050000,5.233906,7.326027,4.786799,2.950000,-3.500000,0.000000,-2.966310,47.000000
0.050000,5.097887,7.300794,4.925549,2.775000,-3.500000,0.000000,-2.949903,48.000000
0.050000,4.970678,7.275055,5.055549,2.600000,-3.500000,0.000000,-2.933910,50.000000
0.050000,4.852243,7.249146,5.176799,2.425000,-3.500000,0.000000,-2.918463,51.000000
0.050000,4.742544,7.223405,5.289299,2.250000,-3.500000,0.000000,-2.903685,53.000000
0.050000,4.641544,7.198165,5.393049,2.075000,-3.500000,0.000000,-2.889686,54.000000
0.050000,4.549207,7.173755,5.488049,1.900000,-3.500000,0.000000,-2.876563,56.000000
0.050000,4.465496,7.150489,5.574299,1.725000,-3.500000,0.000000,-2.864406,60.000000
0.050000,4.390380,7.128667,5.651799,1.550000,-3.500000,0.000000,-2.853289,59.000000
0.050000,4.323828,7.108567,5.720549,1.375000,-3.500000,0.000000,-2.843279,59.000000
0.050000,4.265809,7.090447,5.780549,1.200000,-3.500000,0.000000,-2.834432,59.000000
0.050000,4.216301,7.074534,5.831799,1.025000,-3.500000,0.000000,-2.826796,59.000000
0.050000,4.175279,7.061032,5.874299,0.850000,-3.500000,0.000000,-2.820408,59.000000
0.050000,4.142725,7.050109,5.908049,0.675000,-3.500000,0.000000,-2.815302,59.000000
0.050000,4.118623,7.041902,5.933049,0.500000,-3.500000,0.000000,-2.811499,59.000000
0.050000,4.102963,7.036515,5.949299,0.325000,-3.500000,0.000000,-2.809019,59.000000
0.050000,4.095737,7.034014,5.956799,0.150000,-3.500000,0.000000,-2.807872,59.000000
0.050000,4.000000,7.000000,6.056263,0.000000,0.000000,0.000000,-2.792527,59.000000
