dt,x,y,position,velocity,acceleration,jerk,heading,lookahead
0.050000,3.300000,1.000000,0.000000,0.000000,3.000000,0.000000,0.000000,12.000000
0.050000,3.307261,1.000011,0.007500,0.150000,3.000000,0.000000,0.002914,12.000000
0.050000,3.321787,1.000095,0.022500,0.300000,3.000000,0.000000,0.008664,12.000000
0.050000,3.343586,1.000376,0.045000,0.450000,3.000000,0.000000,0.017098,13.000000
0.050000,3.372671,1.001033,0.075000,0.600000,3.000000,0.000000,0.027982,13.000000
0.050000,3.409058,1.002290,0.112500,0.750000,3.000000,0.000000,0.041010,13.000000
0.050000,3.452765,1.004411,0.157500,0.900000,3.000000,0.000000,0.055796,14.000000
0.050000,3.503810,1.007680,0.210000,1.050000,3.000000,0.000000,0.071882,14.000000
0.050000,3.562215,1.012389,0.270000,1.200000,3.000000,0.000000,0.088741,15.000000
0.050000,3.627999,1.018818,0.337500,1.350000,3.000000,0.000000,0.105778,16.000000
0.050000,3.701178,1.027217,0.412500,1.500000,3.000000,0.000000,0.122341,16.000000
0.050000,3.781767,1.037776,0.495000,1.650000,3.000000,0.000000,0.137724,17.000000
0.050000,3.869772,1.050604,0.585000,1.800000,3.000000,0.000000,0.151169,18.000000
0.050000,3.965193,1.065695,0.682500,1.950000,3.000000,0.000000,0.161866,19.000000
0.050000,4.047614,1.079430,0.766667,2.000000,0.000000,0.000000,0.167907,20.000000
0.050000,4.145573,1.096239,0.866667,2.000000,0.000000,0.000000,0.171274,21.000000
0.050000,4.243542,1.113181,0.966667,2.000000,0.000000,0.000000,0.170520,22.000000
0.050000,4.341491,1.129836,1.066667,2.000000,0.000000,0.000000,0.165642,23.000000
0.050000,4.439391,1.145783,1.166667,2.000000,0.000000,0.000000,0.156611,24.000000
0.050000,4.537214,1.160603,1.266667,2.000000,0.000000,0.000000,0.143375,25.000000
0.050000,4.634929,1.173873,1.366667,2.000000,0.000000,0.000000,0.125866,26.000000
0.050000,4.732509,1.185175,1.466667,2.000000,0.000000,0.000000,0.104003,27.000000
0.050000,4.829924,1.194088,1.566667,2.000000,0.000000,0.000000,0.077704,28.000000
0.050000,4.927145,1.200190,1.666667,2.000000,0.000000,0.000000,0.046895,29.000000
0.050000,5.024144,1.203063,1.766667,2.000000,0.000000,0.000000,0.011529,30.000000
0.050000,5.120890,1.202284,1.866667,2.000000,0.000000,0.000000,-0.028395,31.000000
0.050000,5.217356,1.197434,1.966667,2.000000,0.000000,0.000000,-0.072813,32.000000
0.050000,5.313512,1.188093,2.066667,2.000000,0.000000,0.000000,-0.121568,33.000000
0.050000,5.409330,1.173840,2.166667,2.000000,0.000000,0.000000,-0.174391,34.000000
0.050000,5.504779,1.154254,2.266667,2.000000,0.000000,0.000000,-0.230884,35.000000
0.050000,5.577791,1.135335,2.343440,2.000000,0.000000,0.000000,-0.276415,36.000000
0.050000,5.745627,1.077566,2.520940,1.700000,-3.000000,0.000000,-0.387069,40.000000
0.050000,5.818453,1.045740,2.598440,1.550000,-3.000000,0.000000,-0.436884,44.000000
0.050000,5.883976,1.013309,2.668440,1.400000,-3.000000,0.000000,-0.482190,43.000000
0.050000,5.942268,0.981276,2.730940,1.250000,-3.000000,0.000000,-0.522643,43.000000
0.050000,5.993392,0.950600,2.785940,1.100000,-3.000000,0.000000,-0.558071,43.000000
0.050000,6.037412,0.922178,2.833440,0.950000,-3.000000,0.000000,-0.588434,43.000000
0.050000,6.074384,0.896822,2.873440,0.800000,-3.000000,0.000000,-0.613771,43.000000
0.050000,6.104356,0.875243,2.905940,0.650000,-3.000000,0.000000,-0.634168,43.000000
0.050000,6.127369,0.858038,2.930940,0.500000,-3.000000,0.000000,-0.649727,43.000000
0.050000,6.143457,0.845677,2.948440,0.350000,-3.000000,0.000000,-0.660545,43.000000
0.050000,6.152641,0.838495,2.958440,0.200000,-3.000000,0.000000,-0.666698,43.000000
0.050000,6.154937,0.836686,2.960940,0.050000,-3.000000,0.000000,-0.668232,43.000000
0.050000,6.200000,0.800000,3.010106,0.000000,0.000000,0.000000,-0.698132,43.000000
